<svg width="100" height="100" viewBox="0 0 100 100" fill="none" xmlns="http://www.w3.org/2000/svg">
<path d="M80.8228 55.5126H19.0344V69.8751H80.8228V55.5126Z" fill="white"/>
<path d="M21.5376 34.6594C24.7626 29.033 32.8249 29.033 36.0499 34.6594C39.2748 40.2857 35.2437 47.3187 28.7937 47.3187C22.3438 47.3187 18.3127 40.2857 21.5376 34.6594Z" fill="white"/>
<path d="M65.1011 22L79.6135 47.3186H50.5889L65.1011 22Z" fill="white"/>
</svg>
